<?xml version="1.0" encoding="UTF-8" standalone="no"?>
<graphml xmlns="http://graphml.graphdrawing.org/xmlns" xmlns:java="http://www.yworks.com/xml/yfiles-common/1.0/java" xmlns:sys="http://www.yworks.com/xml/yfiles-common/markup/primitives/2.0" xmlns:x="http://www.yworks.com/xml/yfiles-common/markup/2.0" xmlns:xsi="http://www.w3.org/2001/XMLSchema-instance" xmlns:y="http://www.yworks.com/xml/graphml" xmlns:yed="http://www.yworks.com/xml/yed/3" xsi:schemaLocation="http://graphml.graphdrawing.org/xmlns http://www.yworks.com/xml/schema/graphml/1.1/ygraphml.xsd">
  <!--Created by yEd 3.19.1.1-->
  <key attr.name="Description" attr.type="string" for="graph" id="d0"/>
  <key for="port" id="d1" yfiles.type="portgraphics"/>
  <key for="port" id="d2" yfiles.type="portgeometry"/>
  <key for="port" id="d3" yfiles.type="portuserdata"/>
  <key attr.name="url" attr.type="string" for="node" id="d4"/>
  <key attr.name="description" attr.type="string" for="node" id="d5"/>
  <key for="node" id="d6" yfiles.type="nodegraphics"/>
  <key for="graphml" id="d7" yfiles.type="resources"/>
  <key attr.name="url" attr.type="string" for="edge" id="d8"/>
  <key attr.name="description" attr.type="string" for="edge" id="d9"/>
  <key for="edge" id="d10" yfiles.type="edgegraphics"/>
  <graph edgedefault="directed" id="G">
    <data key="d0"/>
    <node id="n0">
      <data key="d5"/>
      <data key="d6">
        <y:ImageNode>
          <y:Geometry height="82.73684210526315" width="84.0" x="1050.5922808647156" y="343.1315789473684"/>
          <y:Fill color="#CCCCFF" transparent="false"/>
          <y:BorderStyle color="#000000" type="line" width="1.0"/>
          <y:NodeLabel alignment="center" autoSizePolicy="content" fontFamily="Dialog" fontSize="12" fontStyle="plain" hasBackgroundColor="false" hasLineColor="false" hasText="false" height="4.0" horizontalTextPosition="center" iconTextGap="4" modelName="sandwich" modelPosition="s" textColor="#000000" verticalTextPosition="bottom" visible="true" width="4.0" x="40.0" y="86.73684210526315"/>
          <y:Image alphaImage="true" refid="1"/>
        </y:ImageNode>
      </data>
    </node>
    <node id="n1">
      <data key="d6">
        <y:SVGNode>
          <y:Geometry height="29.999969482421875" width="45.0" x="784.5922808647156" y="369.50001525878906"/>
          <y:Fill color="#CCCCFF" transparent="false"/>
          <y:BorderStyle color="#000000" type="line" width="1.0"/>
          <y:NodeLabel alignment="center" autoSizePolicy="content" fontFamily="Dialog" fontSize="12" fontStyle="plain" hasBackgroundColor="false" hasLineColor="false" height="17.96875" horizontalTextPosition="center" iconTextGap="4" modelName="sides" modelPosition="e" textColor="#000000" verticalTextPosition="bottom" visible="true" width="89.6171875" x="49.0" xml:space="preserve" y="6.0156097412109375">router-nodhcp</y:NodeLabel>
          <y:SVGNodeProperties usingVisualBounds="true"/>
          <y:SVGModel svgBoundsPolicy="0">
            <y:SVGContent refid="2"/>
          </y:SVGModel>
        </y:SVGNode>
      </data>
    </node>
    <node id="n2">
      <data key="d5"/>
      <data key="d6">
        <y:GenericNode configuration="com.yworks.flowchart.cloud">
          <y:Geometry height="93.55799961090088" width="161.0" x="859.5922808647156" y="425.86842105263156"/>
          <y:Fill color="#E8EEF7" color2="#B7C9E3" transparent="false"/>
          <y:BorderStyle color="#000000" type="line" width="1.0"/>
          <y:NodeLabel alignment="center" autoSizePolicy="content" fontFamily="Dialog" fontSize="12" fontStyle="plain" hasBackgroundColor="false" hasLineColor="false" height="31.9375" horizontalTextPosition="center" iconTextGap="4" modelName="custom" textColor="#000000" verticalTextPosition="bottom" visible="true" width="59.6171875" x="50.69140625" xml:space="preserve" y="30.81024980545044">LAN_B
host-only<y:LabelModel><y:SmartNodeLabelModel distance="4.0"/></y:LabelModel><y:ModelParameter><y:SmartNodeLabelModelParameter labelRatioX="0.0" labelRatioY="0.0" nodeRatioX="0.0" nodeRatioY="0.0" offsetX="0.0" offsetY="0.0" upX="0.0" upY="-1.0"/></y:ModelParameter></y:NodeLabel>
        </y:GenericNode>
      </data>
    </node>
    <node id="n3">
      <data key="d5"/>
      <data key="d6">
        <y:GenericNode configuration="com.yworks.flowchart.cloud">
          <y:Geometry height="82.73684210526312" width="126.0" x="550.5461404323578" y="48.63157894736844"/>
          <y:Fill color="#E8EEF7" color2="#FF0000" transparent="false"/>
          <y:BorderStyle color="#000000" type="line" width="1.0"/>
          <y:NodeLabel alignment="center" autoSizePolicy="content" fontFamily="Dialog" fontSize="12" fontStyle="plain" hasBackgroundColor="false" hasLineColor="false" height="17.96875" horizontalTextPosition="center" iconTextGap="4" modelName="custom" textColor="#000000" verticalTextPosition="bottom" visible="true" width="51.654296875" x="37.1728515625" xml:space="preserve" y="32.38404605263156">internet<y:LabelModel><y:SmartNodeLabelModel distance="4.0"/></y:LabelModel><y:ModelParameter><y:SmartNodeLabelModelParameter labelRatioX="0.0" labelRatioY="0.0" nodeRatioX="0.0" nodeRatioY="0.0" offsetX="0.0" offsetY="0.0" upX="0.0" upY="-1.0"/></y:ModelParameter></y:NodeLabel>
        </y:GenericNode>
      </data>
    </node>
    <node id="n4">
      <data key="d5"/>
      <data key="d6">
        <y:ImageNode>
          <y:Geometry height="82.73684210526315" width="84.0" x="129.5" y="340.2631426359478"/>
          <y:Fill color="#CCCCFF" transparent="false"/>
          <y:BorderStyle color="#000000" type="line" width="1.0"/>
          <y:NodeLabel alignment="center" autoSizePolicy="content" fontFamily="Dialog" fontSize="12" fontStyle="plain" hasBackgroundColor="false" hasLineColor="false" hasText="false" height="4.0" horizontalTextPosition="center" iconTextGap="4" modelName="sandwich" modelPosition="s" textColor="#000000" verticalTextPosition="bottom" visible="true" width="4.0" x="40.0" y="86.73684210526318"/>
          <y:Image alphaImage="true" refid="1"/>
        </y:ImageNode>
      </data>
    </node>
    <node id="n5">
      <data key="d5"/>
      <data key="d6">
        <y:GenericNode configuration="com.yworks.flowchart.cloud">
          <y:Geometry height="93.55799961090088" width="154.0" x="213.5" y="422.99998474121094"/>
          <y:Fill color="#E8EEF7" color2="#B7C9E3" transparent="false"/>
          <y:BorderStyle color="#000000" type="line" width="1.0"/>
          <y:NodeLabel alignment="center" autoSizePolicy="content" fontFamily="Dialog" fontSize="12" fontStyle="plain" hasBackgroundColor="false" hasLineColor="false" height="31.9375" horizontalTextPosition="center" iconTextGap="4" modelName="custom" textColor="#000000" verticalTextPosition="bottom" visible="true" width="59.6171875" x="47.19140625" xml:space="preserve" y="30.81024980545044">LAN_A
host-only<y:LabelModel><y:SmartNodeLabelModel distance="4.0"/></y:LabelModel><y:ModelParameter><y:SmartNodeLabelModelParameter labelRatioX="0.0" labelRatioY="0.0" nodeRatioX="0.0" nodeRatioY="0.0" offsetX="0.0" offsetY="0.0" upX="0.0" upY="-1.0"/></y:ModelParameter></y:NodeLabel>
        </y:GenericNode>
      </data>
    </node>
    <node id="n6">
      <data key="d6">
        <y:SVGNode>
          <y:Geometry height="29.999969482421875" width="45.0" x="397.5" y="363.00001525878906"/>
          <y:Fill color="#CCCCFF" transparent="false"/>
          <y:BorderStyle color="#000000" type="line" width="1.0"/>
          <y:NodeLabel alignment="center" autoSizePolicy="content" fontFamily="Dialog" fontSize="12" fontStyle="plain" hasBackgroundColor="false" hasLineColor="false" height="17.96875" horizontalTextPosition="center" iconTextGap="4" modelName="sides" modelPosition="e" textColor="#000000" verticalTextPosition="bottom" visible="true" width="89.6171875" x="49.0" xml:space="preserve" y="6.0156097412109375">router-nodhcp</y:NodeLabel>
          <y:SVGNodeProperties usingVisualBounds="true"/>
          <y:SVGModel svgBoundsPolicy="0">
            <y:SVGContent refid="2"/>
          </y:SVGModel>
        </y:SVGNode>
      </data>
    </node>
    <node id="n7">
      <data key="d5"/>
      <data key="d6">
        <y:GenericNode configuration="com.yworks.flowchart.cloud">
          <y:Geometry height="93.55799961090088" width="161.0" x="726.5922808647156" y="223.22100019454956"/>
          <y:Fill color="#E8EEF7" color2="#B7C9E3" transparent="false"/>
          <y:BorderStyle color="#000000" type="line" width="1.0"/>
          <y:NodeLabel alignment="center" autoSizePolicy="content" fontFamily="Dialog" fontSize="12" fontStyle="plain" hasBackgroundColor="false" hasLineColor="false" height="17.96875" horizontalTextPosition="center" iconTextGap="4" modelName="custom" textColor="#000000" verticalTextPosition="bottom" visible="true" width="50.119140625" x="55.4404296875" xml:space="preserve" y="37.79462480545044">vmnet8<y:LabelModel><y:SmartNodeLabelModel distance="4.0"/></y:LabelModel><y:ModelParameter><y:SmartNodeLabelModelParameter labelRatioX="0.0" labelRatioY="0.0" nodeRatioX="0.0" nodeRatioY="0.0" offsetX="0.0" offsetY="0.0" upX="0.0" upY="-1.0"/></y:ModelParameter></y:NodeLabel>
        </y:GenericNode>
      </data>
    </node>
    <node id="n8">
      <data key="d5"/>
      <data key="d6">
        <y:GenericNode configuration="com.yworks.flowchart.cloud">
          <y:Geometry height="93.55799961090088" width="161.0" x="339.5" y="223.22100019454956"/>
          <y:Fill color="#E8EEF7" color2="#B7C9E3" transparent="false"/>
          <y:BorderStyle color="#000000" type="line" width="1.0"/>
          <y:NodeLabel alignment="center" autoSizePolicy="content" fontFamily="Dialog" fontSize="12" fontStyle="plain" hasBackgroundColor="false" hasLineColor="false" height="17.96875" horizontalTextPosition="center" iconTextGap="4" modelName="custom" textColor="#000000" verticalTextPosition="bottom" visible="true" width="50.119140625" x="55.4404296875" xml:space="preserve" y="37.79462480545044">vmnet8<y:LabelModel><y:SmartNodeLabelModel distance="4.0"/></y:LabelModel><y:ModelParameter><y:SmartNodeLabelModelParameter labelRatioX="0.0" labelRatioY="0.0" nodeRatioX="0.0" nodeRatioY="0.0" offsetX="0.0" offsetY="0.0" upX="0.0" upY="-1.0"/></y:ModelParameter></y:NodeLabel>
        </y:GenericNode>
      </data>
    </node>
    <node id="n9">
      <data key="d6">
        <y:SVGNode>
          <y:Geometry height="29.999969482421875" width="45.0" x="397.5" y="147.00001525878906"/>
          <y:Fill color="#CCCCFF" transparent="false"/>
          <y:BorderStyle color="#000000" type="line" width="1.0"/>
          <y:NodeLabel alignment="center" autoSizePolicy="content" fontFamily="Dialog" fontSize="12" fontStyle="plain" hasBackgroundColor="false" hasLineColor="false" height="45.90625" horizontalTextPosition="center" iconTextGap="4" modelName="sandwich" modelPosition="n" textColor="#000000" verticalTextPosition="bottom" visible="true" width="83.083984375" x="-19.0419921875" xml:space="preserve" y="-49.90625">vmware
virtual router
(NAT)</y:NodeLabel>
          <y:SVGNodeProperties usingVisualBounds="true"/>
          <y:SVGModel svgBoundsPolicy="0">
            <y:SVGContent refid="2"/>
          </y:SVGModel>
        </y:SVGNode>
      </data>
    </node>
    <node id="n10">
      <data key="d6">
        <y:SVGNode>
          <y:Geometry height="29.999969482421875" width="45.0" x="784.5922808647156" y="147.00001525878906"/>
          <y:Fill color="#CCCCFF" transparent="false"/>
          <y:BorderStyle color="#000000" type="line" width="1.0"/>
          <y:NodeLabel alignment="center" autoSizePolicy="content" fontFamily="Dialog" fontSize="12" fontStyle="plain" hasBackgroundColor="false" hasLineColor="false" height="45.90625" horizontalTextPosition="center" iconTextGap="4" modelName="sandwich" modelPosition="n" textColor="#000000" verticalTextPosition="bottom" visible="true" width="83.083984375" x="-19.0419921875" xml:space="preserve" y="-49.90625">vmware
virtual router
(NAT)</y:NodeLabel>
          <y:SVGNodeProperties usingVisualBounds="true"/>
          <y:SVGModel svgBoundsPolicy="0">
            <y:SVGContent refid="2"/>
          </y:SVGModel>
        </y:SVGNode>
      </data>
    </node>
    <node id="n11">
      <data key="d5"/>
      <data key="d6">
        <y:GenericNode configuration="com.yworks.flowchart.cloud">
          <y:Geometry height="93.55799961090088" width="161.0" x="533.0461404323578" y="422.99998474121094"/>
          <y:Fill color="#E8EEF7" color2="#B7C9E3" transparent="false"/>
          <y:BorderStyle color="#000000" type="line" width="1.0"/>
          <y:NodeLabel alignment="center" autoSizePolicy="content" fontFamily="Dialog" fontSize="12" fontStyle="plain" hasBackgroundColor="false" hasLineColor="false" height="31.9375" horizontalTextPosition="center" iconTextGap="4" modelName="custom" textColor="#000000" verticalTextPosition="bottom" visible="true" width="50.119140625" x="55.4404296875" xml:space="preserve" y="30.81024980545044">vmnet
bridged<y:LabelModel><y:SmartNodeLabelModel distance="4.0"/></y:LabelModel><y:ModelParameter><y:SmartNodeLabelModelParameter labelRatioX="0.0" labelRatioY="0.0" nodeRatioX="0.0" nodeRatioY="0.0" offsetX="0.0" offsetY="0.0" upX="0.0" upY="-1.0"/></y:ModelParameter></y:NodeLabel>
        </y:GenericNode>
      </data>
    </node>
    <node id="n12">
      <data key="d5"/>
      <data key="d6">
        <y:ShapeNode>
          <y:Geometry height="398.0" width="506.0000000000001" x="647.0" y="144.13950753211975"/>
          <y:Fill hasColor="false" transparent="false"/>
          <y:BorderStyle color="#000000" raised="false" type="dashed" width="1.0"/>
          <y:NodeLabel alignment="center" autoSizePolicy="content" fontFamily="Dialog" fontSize="12" fontStyle="plain" hasBackgroundColor="false" hasLineColor="false" height="17.96875" horizontalTextPosition="center" iconTextGap="4" modelName="internal" modelPosition="tr" textColor="#000000" verticalTextPosition="bottom" visible="true" width="43.369140625" x="458.630859375" xml:space="preserve" y="4.0">Host B</y:NodeLabel>
          <y:Shape type="rectangle"/>
        </y:ShapeNode>
      </data>
    </node>
    <node id="n13">
      <data key="d5"/>
      <data key="d6">
        <y:ShapeNode>
          <y:Geometry height="398.0" width="484.0000000000001" x="117.99999999999994" y="140.88950753211975"/>
          <y:Fill hasColor="false" transparent="false"/>
          <y:BorderStyle color="#000000" raised="false" type="dashed" width="1.0"/>
          <y:NodeLabel alignment="center" autoSizePolicy="content" fontFamily="Dialog" fontSize="12" fontStyle="plain" hasBackgroundColor="false" hasLineColor="false" height="17.96875" horizontalTextPosition="center" iconTextGap="4" modelName="internal" modelPosition="tl" textColor="#000000" verticalTextPosition="bottom" visible="true" width="43.345703125" x="4.0" xml:space="preserve" y="4.0">Host A</y:NodeLabel>
          <y:Shape type="rectangle"/>
        </y:ShapeNode>
      </data>
    </node>
    <edge id="e0" source="n1" target="n2">
      <data key="d9"/>
      <data key="d10">
        <y:PolyLineEdge>
          <y:Path sx="0.0" sy="0.0" tx="0.0" ty="0.0"/>
          <y:LineStyle color="#000000" type="line" width="1.0"/>
          <y:Arrows source="none" target="none"/>
          <y:EdgeLabel alignment="center" backgroundColor="#FFFFFF" configuration="AutoFlippingLabel" distance="2.0" fontFamily="Dialog" fontSize="12" fontStyle="plain" hasLineColor="false" height="17.96875" horizontalTextPosition="center" iconTextGap="4" modelName="custom" preferredPlacement="anywhere" ratio="0.5" textColor="#000000" verticalTextPosition="bottom" visible="true" width="15.44921875" x="12.641401457015832" xml:space="preserve" y="4.513459201480714">.1<y:LabelModel><y:SmartEdgeLabelModel autoRotationEnabled="false" defaultAngle="0.0" defaultDistance="10.0"/></y:LabelModel><y:ModelParameter><y:SmartEdgeLabelModelParameter angle="0.0" distance="30.0" distanceToCenter="true" position="center" ratio="0.5" segment="0"/></y:ModelParameter><y:PreferredPlacementDescriptor angle="0.0" angleOffsetOnRightSide="0" angleReference="absolute" angleRotationOnRightSide="co" distance="-1.0" frozen="true" placement="anywhere" side="anywhere" sideReference="relative_to_edge_flow"/></y:EdgeLabel>
          <y:BendStyle smoothed="false"/>
        </y:PolyLineEdge>
      </data>
    </edge>
    <edge id="e1" source="n7" target="n1">
      <data key="d9"/>
      <data key="d10">
        <y:PolyLineEdge>
          <y:Path sx="0.0" sy="0.0" tx="0.0" ty="0.0"/>
          <y:LineStyle color="#000000" type="line" width="1.0"/>
          <y:Arrows source="none" target="none"/>
          <y:EdgeLabel alignment="center" backgroundColor="#FFFFFF" configuration="AutoFlippingLabel" distance="2.0" fontFamily="Dialog" fontSize="12" fontStyle="plain" hasLineColor="false" height="17.96875" horizontalTextPosition="center" iconTextGap="4" modelName="custom" preferredPlacement="anywhere" ratio="0.5" textColor="#000000" verticalTextPosition="bottom" visible="true" width="37.87890625" x="-18.939457416534424" xml:space="preserve" y="21.63694405555725">DHCP<y:LabelModel><y:SmartEdgeLabelModel autoRotationEnabled="false" defaultAngle="0.0" defaultDistance="10.0"/></y:LabelModel><y:ModelParameter><y:SmartEdgeLabelModelParameter angle="0.0" distance="30.0" distanceToCenter="true" position="center" ratio="0.5" segment="0"/></y:ModelParameter><y:PreferredPlacementDescriptor angle="0.0" angleOffsetOnRightSide="0" angleReference="absolute" angleRotationOnRightSide="co" distance="-1.0" frozen="true" placement="anywhere" side="anywhere" sideReference="relative_to_edge_flow"/></y:EdgeLabel>
          <y:BendStyle smoothed="false"/>
        </y:PolyLineEdge>
      </data>
    </edge>
    <edge id="e2" source="n6" target="n5">
      <data key="d9"/>
      <data key="d10">
        <y:PolyLineEdge>
          <y:Path sx="0.0" sy="0.0" tx="0.0" ty="0.0"/>
          <y:LineStyle color="#000000" type="line" width="1.0"/>
          <y:Arrows source="none" target="none"/>
          <y:EdgeLabel alignment="center" backgroundColor="#FFFFFF" configuration="AutoFlippingLabel" distance="2.0" fontFamily="Dialog" fontSize="12" fontStyle="plain" hasLineColor="false" height="17.96875" horizontalTextPosition="center" iconTextGap="4" modelName="custom" preferredPlacement="anywhere" ratio="0.5" textColor="#000000" verticalTextPosition="bottom" visible="true" width="15.44921875" x="-28.84938330878498" xml:space="preserve" y="5.987124571709785">.1<y:LabelModel><y:SmartEdgeLabelModel autoRotationEnabled="false" defaultAngle="0.0" defaultDistance="10.0"/></y:LabelModel><y:ModelParameter><y:SmartEdgeLabelModelParameter angle="0.0" distance="30.0" distanceToCenter="true" position="center" ratio="0.5" segment="0"/></y:ModelParameter><y:PreferredPlacementDescriptor angle="0.0" angleOffsetOnRightSide="0" angleReference="absolute" angleRotationOnRightSide="co" distance="-1.0" frozen="true" placement="anywhere" side="anywhere" sideReference="relative_to_edge_flow"/></y:EdgeLabel>
          <y:BendStyle smoothed="false"/>
        </y:PolyLineEdge>
      </data>
    </edge>
    <edge id="e3" source="n5" target="n4">
      <data key="d9"/>
      <data key="d10">
        <y:PolyLineEdge>
          <y:Path sx="0.0" sy="0.0" tx="0.0" ty="0.0"/>
          <y:LineStyle color="#000000" type="line" width="1.0"/>
          <y:Arrows source="none" target="none"/>
          <y:EdgeLabel alignment="center" backgroundColor="#FFFFFF" configuration="AutoFlippingLabel" distance="2.0" fontFamily="Dialog" fontSize="12" fontStyle="plain" hasLineColor="false" height="17.96875" horizontalTextPosition="center" iconTextGap="4" modelName="custom" preferredPlacement="anywhere" ratio="0.5" textColor="#000000" verticalTextPosition="bottom" visible="true" width="36.947265625" x="-40.92732805746857" xml:space="preserve" y="-25.61659631148183">static<y:LabelModel><y:SmartEdgeLabelModel autoRotationEnabled="false" defaultAngle="0.0" defaultDistance="10.0"/></y:LabelModel><y:ModelParameter><y:SmartEdgeLabelModelParameter angle="0.0" distance="30.0" distanceToCenter="true" position="center" ratio="0.5" segment="0"/></y:ModelParameter><y:PreferredPlacementDescriptor angle="0.0" angleOffsetOnRightSide="0" angleReference="absolute" angleRotationOnRightSide="co" distance="-1.0" frozen="true" placement="anywhere" side="anywhere" sideReference="relative_to_edge_flow"/></y:EdgeLabel>
          <y:BendStyle smoothed="false"/>
        </y:PolyLineEdge>
      </data>
    </edge>
    <edge id="e4" source="n0" target="n2">
      <data key="d9"/>
      <data key="d10">
        <y:PolyLineEdge>
          <y:Path sx="0.0" sy="0.0" tx="0.0" ty="0.0"/>
          <y:LineStyle color="#000000" type="line" width="1.0"/>
          <y:Arrows source="none" target="none"/>
          <y:EdgeLabel alignment="center" backgroundColor="#FFFFFF" configuration="AutoFlippingLabel" distance="2.0" fontFamily="Dialog" fontSize="12" fontStyle="plain" hasLineColor="false" height="17.96875" horizontalTextPosition="center" iconTextGap="4" modelName="custom" preferredPlacement="anywhere" ratio="0.5" textColor="#000000" verticalTextPosition="bottom" visible="true" width="36.947265625" x="-34.3051111121257" xml:space="preserve" y="0.16645319268519643">static<y:LabelModel><y:SmartEdgeLabelModel autoRotationEnabled="false" defaultAngle="0.0" defaultDistance="10.0"/></y:LabelModel><y:ModelParameter><y:SmartEdgeLabelModelParameter angle="0.0" distance="30.0" distanceToCenter="true" position="center" ratio="1.0" segment="-1"/></y:ModelParameter><y:PreferredPlacementDescriptor angle="0.0" angleOffsetOnRightSide="0" angleReference="absolute" angleRotationOnRightSide="co" distance="-1.0" frozen="true" placement="anywhere" side="anywhere" sideReference="relative_to_edge_flow"/></y:EdgeLabel>
          <y:BendStyle smoothed="false"/>
        </y:PolyLineEdge>
      </data>
    </edge>
    <edge id="e5" source="n9" target="n3">
      <data key="d9"/>
      <data key="d10">
        <y:PolyLineEdge>
          <y:Path sx="0.0" sy="0.0" tx="0.0" ty="0.0"/>
          <y:LineStyle color="#000000" type="line" width="1.0"/>
          <y:Arrows source="none" target="none"/>
          <y:BendStyle smoothed="false"/>
        </y:PolyLineEdge>
      </data>
    </edge>
    <edge id="e6" source="n9" target="n8">
      <data key="d9"/>
      <data key="d10">
        <y:PolyLineEdge>
          <y:Path sx="0.0" sy="0.0" tx="0.0" ty="0.0"/>
          <y:LineStyle color="#000000" type="line" width="1.0"/>
          <y:Arrows source="none" target="none"/>
          <y:BendStyle smoothed="false"/>
        </y:PolyLineEdge>
      </data>
    </edge>
    <edge id="e7" source="n3" target="n10">
      <data key="d9"/>
      <data key="d10">
        <y:PolyLineEdge>
          <y:Path sx="0.0" sy="0.0" tx="0.0" ty="0.0"/>
          <y:LineStyle color="#000000" type="line" width="1.0"/>
          <y:Arrows source="none" target="none"/>
          <y:BendStyle smoothed="false"/>
        </y:PolyLineEdge>
      </data>
    </edge>
    <edge id="e8" source="n7" target="n10">
      <data key="d9"/>
      <data key="d10">
        <y:PolyLineEdge>
          <y:Path sx="0.0" sy="0.0" tx="0.0" ty="0.0"/>
          <y:LineStyle color="#000000" type="line" width="1.0"/>
          <y:Arrows source="none" target="none"/>
          <y:BendStyle smoothed="false"/>
        </y:PolyLineEdge>
      </data>
    </edge>
    <edge id="e9" source="n8" target="n6">
      <data key="d9"/>
      <data key="d10">
        <y:PolyLineEdge>
          <y:Path sx="0.0" sy="0.0" tx="0.0" ty="0.0"/>
          <y:LineStyle color="#000000" type="line" width="1.0"/>
          <y:Arrows source="none" target="none"/>
          <y:BendStyle smoothed="false"/>
        </y:PolyLineEdge>
      </data>
    </edge>
    <edge id="e10" source="n6" target="n11">
      <data key="d9"/>
      <data key="d10">
        <y:PolyLineEdge>
          <y:Path sx="0.0" sy="0.0" tx="0.0" ty="0.0"/>
          <y:LineStyle color="#000000" type="line" width="1.0"/>
          <y:Arrows source="none" target="none"/>
          <y:BendStyle smoothed="false"/>
        </y:PolyLineEdge>
      </data>
    </edge>
    <edge id="e11" source="n1" target="n11">
      <data key="d9"/>
      <data key="d10">
        <y:PolyLineEdge>
          <y:Path sx="0.0" sy="0.0" tx="0.0" ty="0.0"/>
          <y:LineStyle color="#000000" type="line" width="1.0"/>
          <y:Arrows source="none" target="none"/>
          <y:BendStyle smoothed="false"/>
        </y:PolyLineEdge>
      </data>
    </edge>
  </graph>
  <data key="d7">
    <y:Resources>
      <y:Resource id="1" type="java.awt.image.BufferedImage" xml:space="preserve">iVBORw0KGgoAAAANSUhEUgAAAIUAAACDCAYAAACjg9ghAAASFElEQVR4Xu2dh5MUxRfH/SvMumYU&#13;
syLmiAFzVjCWGFC0RMVQKihGtNSiwFyggAJmy4CiIoVaYi4RFVHRO8WcA4LZ9j79882v703P7B43&#13;
ezuhv1Wv7na2p6e333ded79+3b3Mb7/9ZoIEcWUZfSFIkBgpfv31VytLliwxv/zyi/n555/Njz/+&#13;
aL7//vsgJZCffvrJLFq0yCxevDjSNVKXFNzw9ddfm48++sh88MEH5pNPPjGffvppkILLZ599Ztrb&#13;
201bW5vVLSTRhPCSAgsBISDCn3/+aQLKCfQMMX744YcYMWKkoMmATX/88Yf5559/dF4BJQG6pRnh&#13;
5YcgqaSg//Dxxx/rPAJKhr///tu2BDQlGIJUUtDO0P4ElBtYCiSQogM0i76mUSqpavjwww9tM1Jp&#13;
UvBWPPPMMzECBFJUmBS0pWPHjjXz5s2z/wsZ+N0LFiyw1/766y99W2kRSGH+RwrG67vvvrvtVAsp&#13;
6HSdf/755rvvvrNpqoJACvP/ZmLo0KFmyJAhtn8h1uGxxx4zxxxzjLfPUVYEUvwHFD5//nyzyiqr&#13;
mFtuucVaCYiBE6dv377myiuvDKSoGikAluG4446zxJg5c6b9DDFuvPFGs+KKK5r77rsvakbKTJBA&#13;
CgcofM6cOWaFFVYw6667ru14Qgz6FHxebbXVzKuvvlr6/kWpSYHyZDThKlIsgIhA0h1//PFm+eWX&#13;
t83GF198YdNfd911liwbb7yxaW9vt9fKai1KTYqvvvrKzJgxw/4GTQpGG6+88kqnCT4hxfvvv29q&#13;
tZpZbrnlohEJstlmm1li7LTTTtGIpIzEKDUpmNTp3bu32WabbczNN98cKRLh96y88srm7LPPNt98&#13;
800ni4Jceuml1loghx12mA0deOCBB6JrBx98sK24MjYlpSYFCjvzzDMjRa611lrW7/DOO+/YH401&#13;
4M1ff/31zeTJk83vv/8ekQLLQPPB91iMk08+2ZLskEMOsXlxffDgwbZ+yoZCkwLlEQVGH+Ckk06y&#13;
b/e4cePMo48+al566SUzd+5cM3r0aKtUlMgIQmSPPfawf+U6it5tt93ME088Efkp8FFwXe6BYBBq&#13;
9dVXj4h24YUXRunLgsKTAnn22WdtUyBvMCRwRROCzz6R+/v162cmTpxo+x00HXIfeV188cXmhhtu&#13;
6JR+1KhRpXKDl4IUKOSyyy6LlOsSYGlErAD+ig033DD2/fDhw61lElJwDaLIqKboKCQpxC2NAgg6&#13;
pakYMWJEZqQQScoPMhx44IFRGj6vtNJK5qabbiqFxSgUKRg9zJ4929x6663m9NNPt2Ze2nef8npa&#13;
KMP1119feItRKFI8//zzplevXpYEIklvcytEynP55ZfbkUxRUShS4Gii989Q0R0V1BMhTj3R9y2t&#13;
UDZmXPFtFNHzWShSSIzDHXfc0SUlklbe4lqtZpschP8ZtTCq6ArJ6ok864gjjrB1F0iRIaRDKZ1K&#13;
+hT4CrQStMibj3L22msv68187bXXzOeff25D72QFFG8y3sz33nvPTJ8+3YwcOdJst9129r4smibu&#13;
xR/C/Anll9+SdxSCFFgHprK32GILr99BC98fcMABdlTiTn4JuQRy3RWexX2DBg2yVqTes+oJ9++8&#13;
8852MVVROp+5JgUKZch57rnn2iGfrnAtvN21jiYBy9Cdjp6Qkalz4ivE6ujnNSpCUixTEYiRa1Iw&#13;
13DUUUdZhTSiFOIdcFNnNSQkD/J66qmnzOabbx57XqMiTRHkLsKyy1yTAqXwxjOHgXs5yZxLpU+a&#13;
NCkTMmiQJ9PwRx55ZPQsXQafuBZG+ifMp0hTlVfkmhRixnlbWZdBE+JTCNeYvWzWxJQokc4pLm55&#13;
pi6HFgix6667Rmn5TEwGC3ibUc6skGtSAEhBv2KrrbaKVboInU/fYp6sIc3J1Vdf3XCHd9asWbYJ&#13;
FEuB4NwKpOgGUPSwYcPsW6YrXWSDDTaw5Ww2KVzLRXR3I6QgfO/ll182W2+9dUSKWkdnuK2tTWef&#13;
G+SWFFL506ZNiypTV7rIgAEDevTN41l0GJl/wWLo8mihyZg6daolg/wWhryyjCBvyDUpeCZWII0Q&#13;
yHnnndd0K+FC/B2MjvbZZ59YebRQ/vXWW886xuQzAuEDKRoEFoJO48CBA22zQQWmvZFEXPUkKQQo&#13;
dOHChVbh9YjrE2I18LLmbTSSW1J8++235vbbb7cLcB5++OFOEVBaLrroopaRgrIyzGS4rMtVTyD6&#13;
vvvuaxUQSNFFoHD6DbpSRU488cSWkEJA32D8+PGJQ+YkwQpuu+22tr+RJ6dWIUhBhW266aaxShXh&#13;
u+64tbsLMf8PPvigjRjX5UsT4kCz8sBmhVyTQoaAbMyV9gbyxjFhRsW22mIQ77HLLrtEfaB65R4z&#13;
ZowlRZ7C+ApBCvoUaX4KFMCEE0ppJSmElEzP0/mtN4nHb1pzzTXNW2+9FUjRFVDJdCTTfBVcp4Lp&#13;
lEqkUyvJIWBZItPm9Sb0WMHG1HpempFCkIJAGSqVdZ2E4ulKFWIwNGRrxzxULKAcWA1mR5MIjchv&#13;
k+WLrUauSSEOIkYXLPjBdyELcXyVTOXuueeedq5EzHEeLAbN2l133RVFnutyi9AXgdSt9nTmnhSI&#13;
VBJCR04cWrpSxUyzHVGeAlqk7ESjs8+FLrdbfhxa9KFaOUTNNSk0qFiGngS8+EghwncnnHCCNd15&#13;
IQagLEyOMWxNsxiUH78M9d6K8heKFDQFVNJpp52WWqliSYixwDOaF8jQEw9o2shELB4ECqRoEHff&#13;
fbetNNpoeu5JsQ1c23777W2TQ+XmZVRC03DWWWel9o1WXXXVlgX7FpIUeAHXWGMN8/TTT9t9JGQ7&#13;
Il/l8hdzfc8990TEaDUoB78BUusyC5lZwCx9kZ5GIUnBm/biiy9Gnykj0UwuEXQlI4xivvzyy8iX&#13;
0Wqceuqpncor5Vx77bVNe3u7Tt5jKCQpeHtcD6A4fR5//HG7K402y/IZBfA9K8xk15pWkmPChAmx&#13;
crL9wUMPPdRSD2chSZEEKpJyshWRdDaT2uz+/ftb34cQrBVm2vW5ILVaLdqrs5VkLRUppA1GyfgE&#13;
WLLnI4VrOYjTeOGFF6J5k55QhjyHtaZCXuZumANpNSFAqUghkKErZefNIxI8zXIg7HZHRLgMG5tp&#13;
OcSi0dGEDO4+W3lAKUkBhBgIrnL2sGItqo8UQhaGtsRcspFaM+MzIAWjJkICXBK22kIISksKH/Bw&#13;
0skk3F58G0mjFTZQvf/++zt1SHuqeWk1KkUKt1lB4cRHakJoy7HjjjtaD2SezHuzUSlSCOSNp3PJ&#13;
vhWMVvAgintZNzF8ZpUXh/RWwWJUkhQCdzjKlDXbLhKToYkhn1nVTt+k1VPbzUalSaEBQVj8y/ke&#13;
LPcTy6GblVNOOcV2FKUjWzYEUjhwRyxs78wJQb7NVSEKq8k5AjqQomLAcvDbr7jiCtt0aD9Hnz59&#13;
7DEQeRpOZoFAihSI1UCoKDYtcUnB6ITFw0KMsiCQogtgWHrvvffakDrXQyonCJWljxFI0QWI0hmp&#13;
7LfffpYY0sdgr252ugmkqChQPIHBnCok1gJisCtfK6e8s0IgxVJALAYEuPbaayNirLPOOnbDtKIj&#13;
kKIbYMQBMdgDS/oYrGZr9ixrsxFI0U1ADDqguMoZjbA2VDYiKSoCKTIABGDfcNajYDGwHEX2WwRS&#13;
ZABxXhHQQxPCsoIidzgDKTIEdUUgD1sdUWdFRSBFhsBiXHXVVWbZZZe1x0UUFYEUGQJSzJ8/39Cv&#13;
mDNnjv66MAikyBASuLPllluat99+W39dGARSZAyIwelFCxYs0F8VBoEUGQNSsEEJE2RFRSBFE8D2&#13;
B8yNFBWBFE1AcHMHlA6BFAExBFIExBBIERBDLkjhLrLF+eMK12XxDf/r2UcJy3fTuvfKfW7HT65J&#13;
evcvwlS4fJb8fRNcbj5pz9bP15B7SeOWN+lzs5EbUjC2Z1Mz1lmw20zv3r3tX04GYmEOE00HHXSQ&#13;
VZhAKol9sPmee0kvstFGG9kwfPaqcCsTBbDn1BlnnGGnu0nH8wjIFeHzJptsYoNyOXnIpwxWs48Y&#13;
McKmo6xayJf7x40b5yWV4PXXX7d7aXAaAUKEOOVC+F14SKkborr0S9EM5IIUAryALOh1w+hdYe0F&#13;
K8eBvMEs40tKT9AL+2kmLQ6GHGyQRtqkPOS5vsAZPpPHlClT7LZE+j6RIUOGpCqTfIjHkIN59f1S&#13;
Nvbr6gnkihRUDru56EU3IrVarRMpWBzMtaT0HLBC2UnrU4pYGlZ76XtdgVzEYmpSuE0LWyDq+0Q4&#13;
Gtv3fIGUA0ug70UqTQoqjjeGt86nZCEFSsBryA41vnQokR3m3nzzzVSzjSLIJ2nrQlcpmHSaC59y&#13;
uTZ27NjYfSJHH3209z4NvKBsBanvrzwp2GydbQF0xSCQgsKykYgcTO8jBbvZyg5z9Uhx5513JuYj&#13;
IguNyVNbC8lnwoQJsftE2FK5EVJQ1769uytNCiqXt0XWberKwYKw2ptV4UltL9c5SDaNDALSJG1c&#13;
4pP999/fSwoUDrl0epFDDz1U3+IF5fEtaK48KTDRtQ6LoCsGQeHsKgM5kkhx7LHH2jL7lKfB9sw6&#13;
jzQh/3nz5uls6pKC1WONWArSMNLS91eaFFQKS++wFLpiEIhAX0FfF/O/ww472LLWI4R07BhO+ixS&#13;
UnPC8xme8ka7SuZ/9tLS6UUaJQVl8h2gF0jRQQo6fj6lSPPgu04HjTdfmo00JVD57D+RdMhsrcNS&#13;
+YaYPLtXr162M+wSj2dNnjw5ll4EUjSCQAoPhBQo2KesJCEtTir6I430JaSDiZLd5wjp2Od76NCh&#13;
MYshn33OKM4W1eUSoS+SRlIBeeKw0vcHUiwFKUS5DAu1snzAmYVvwvcMRi440fCB+EiDsK7D9ayC&#13;
NFKwN2cjpICskFvfX3lS8DyW3vkUVk8gEwqlcn1K4BrfcbiKL39IwBlkEAtPJcpPSjdr1qxOeaeR&#13;
goPxGgFlw62t7w+k6AYpcFodfvjhVqFppNBHKojwzAsuuMA6yGiKLrnkklgahHs5Y8QlXxopmNfw&#13;
lUcjkMIDlxS6YnQlpZGGyTXfCIT8CahN68jSfDD6QZI8q1yrdXRGFy5c2BAp+vXrFxHVFSmj+zmQ&#13;
QkFIwUk+ScpA2EVGf+cKM6QctaRBpY8ePdq+6Wn5a9HpJO2oUaMixaaRghEL3tBHHnnETJs2zUyf&#13;
Pt3MmDHDzJw50x4vwSkCc+fOtf0pZkT1/ZUnBS7sJFLQPAwePNiWSWYUfem4xuhBYhQEVLqvd7+0&#13;
gqOJZoZyM1OqvxcRclFeKbMrLDNE3njjDbtvuO9+/laaFOwI41M25lxO+aXgSX0PKp5FvjqOgvM+&#13;
femXVngOe3zXI4UWTQrJC4tB59aXnr+VJgXmVlcMUvtvllTaX2kKdDoRduLnx5Eeq8GZHj5SyNvL&#13;
RBxWCrIxkqFfAbnSLNLee+8dxVTo7xsV8sEKzp49255i7Puev5UmRZqn0Y2nYJ6EoBydToSKvuaa&#13;
a6zS3n33XduJ9JGIa/g42IKZJgYhbyqG3z5y5MjYPXIf5cSnMWnSpNj3jYqQAkvBkNj3PX8rSwqc&#13;
QnQUfe2vG3kF8Cc899xzkbLdtPKZkQabnw4fPtybJ0I7DhGSgFubKW1f/vxl7ShzH76806655eEv&#13;
fQpmbXV6EUjhG1VljdyRgrf6nHPOsfESdCbZ5RZh9pOYSr4XSLwEsQyc40kwy8CBA62vghgGPnP9&#13;
ySeftHGc+BY4B13yJH+EvkZaZfPdbbfdFqWXeykT5cSSsPWAmyfCGWGUg5OUXeHcMspJmkGDBtky&#13;
Dhs2zJJvzJgxNoRQfr8rjUz2ZYHckUIcQj5xnUX6vjThPjdfjaR8BUnP1/lrJD1Pl0/no6+73/vy&#13;
yxq5IkWzkKScrJBV/lnl011UghQBXUMgRUAMgRQBMQRSBMQQSBEQQyBFQAyBFAExBFIExBBIERBD&#13;
IEVADIEUATEEUgTE0BApCD5hO6CAckMm5Nra2uqTgj0j2tvbdR4BJQOEIMgJS0FAciopSMBh70Qn&#13;
ufP7AeWAG6tBV4H9vdB1KilIQBOCtRCz4gsqCSgmiGYjNpbIL15+VuTXJQVCICu7yNDhxLxAENqe&#13;
IMUX0Ser5yCE1n0iKRCJdKY5IYAWqxGk+II+eekRbSHqkiJIdSWQIkhMAimCxORfUb8sRYaEz1AA&#13;
AAAASUVORK5CYII=</y:Resource>
      <y:Resource id="2" xml:space="preserve">&lt;?xml version="1.0" encoding="UTF-8" standalone="no"?&gt;
&lt;svg
   xmlns:dc="http://purl.org/dc/elements/1.1/"
   xmlns:cc="http://creativecommons.org/ns#"
   xmlns:rdf="http://www.w3.org/1999/02/22-rdf-syntax-ns#"
   xmlns:svg="http://www.w3.org/2000/svg"
   xmlns="http://www.w3.org/2000/svg"
   viewBox="0 0 45.5 30.2875"
   height="30.2875"
   width="45.5"
   xml:space="preserve"
   version="1.1"
   id="svg2"&gt;&lt;metadata
     id="metadata8"&gt;&lt;rdf:RDF&gt;&lt;cc:Work
         rdf:about=""&gt;&lt;dc:format&gt;image/svg+xml&lt;/dc:format&gt;&lt;dc:type
           rdf:resource="http://purl.org/dc/dcmitype/StillImage" /&gt;&lt;/cc:Work&gt;&lt;/rdf:RDF&gt;&lt;/metadata&gt;&lt;defs
     id="defs6"&gt;&lt;clipPath
       id="clipPath18"
       clipPathUnits="userSpaceOnUse"&gt;&lt;path
         id="path20"
         d="m 0,2.34375 360,0 0,239.656 -360,0 0,-239.656 z" /&gt;&lt;/clipPath&gt;&lt;clipPath
       id="clipPath44"
       clipPathUnits="userSpaceOnUse"&gt;&lt;path
         id="path46"
         d="m 230.059,218.801 64.558,-0.25 -8.758,-28.781 -12.91,7.16 -61.738,-30.52 -26.934,15.254 61.453,29.445 -15.671,7.692" /&gt;&lt;/clipPath&gt;&lt;clipPath
       id="clipPath54"
       clipPathUnits="userSpaceOnUse"&gt;&lt;path
         id="path56"
         d="M 0,2 0,242 360,242 360,2 0,2 Z" /&gt;&lt;/clipPath&gt;&lt;clipPath
       id="clipPath64"
       clipPathUnits="userSpaceOnUse"&gt;&lt;path
         id="path66"
         d="m 205.332,132.406 -8.684,28.055 66.555,-0.481 -15.848,-7.097 63.282,-25.656 -27.805,-13.922 -62.742,25.508 -14.758,-6.407" /&gt;&lt;/clipPath&gt;&lt;clipPath
       id="clipPath76"
       clipPathUnits="userSpaceOnUse"&gt;&lt;path
         id="path78"
         d="M 0,2 0,242 360,242 360,2 0,2 Z" /&gt;&lt;/clipPath&gt;&lt;/defs&gt;&lt;g
     transform="matrix(1.25,0,0,-1.25,0,30.2875)"
     id="g10"&gt;&lt;g
       transform="scale(0.1,0.1)"
       id="g12"&gt;&lt;g
         id="g14"&gt;&lt;g
           clip-path="url(#clipPath18)"
           id="g16"&gt;&lt;path
             id="path22"
             style="fill:#026c9b;fill-opacity:1;fill-rule:nonzero;stroke:none"
             d="m 182.102,100.273 c 99.468,0 180.093,31.36 180.093,70.04 0,38.683 -80.625,70.039 -180.093,70.039 C 82.6289,240.352 2,208.996 2,170.313 c 0,-38.68 80.6289,-70.04 180.102,-70.04" /&gt;&lt;path
             id="path24"
             style="fill:none;stroke:#ffffff;stroke-width:4;stroke-linecap:butt;stroke-linejoin:miter;stroke-miterlimit:4;stroke-dasharray:none;stroke-opacity:1"
             d="m 182.102,100.273 c 99.468,0 180.093,31.36 180.093,70.04 0,38.683 -80.625,70.039 -180.093,70.039 C 82.6289,240.352 2,208.996 2,170.313 c 0,-38.68 80.6289,-70.04 180.102,-70.04 z" /&gt;&lt;path
             id="path26"
             style="fill:#026c9b;fill-opacity:1;fill-rule:nonzero;stroke:none"
             d="m 358.113,184.902 c -54.05,15.45 -70.23,-15.375 -101.636,-15.375 -41.567,0 -26.289,18.555 -74.067,18.719 -56.648,0.203 -33.633,-18.152 -74.707,-18.328 C 77.9414,169.785 66.2969,194.219 5.97656,184.902 2.85156,178.652 1.75,174.789 2.29297,165.23 58.3906,177.914 74.0234,149.191 107.617,150.645 c 46.477,2.011 22.156,19.796 74.719,18.335 49.148,-1.367 24.527,-18.726 74.059,-18.726 42.882,0 48.031,30.055 105.043,16.445 0,0 2.578,8.645 -3.325,18.203" /&gt;&lt;path
             id="path28"
             style="fill:none;stroke:#ffffff;stroke-width:3.5;stroke-linecap:butt;stroke-linejoin:miter;stroke-miterlimit:4;stroke-dasharray:none;stroke-opacity:1"
             d="m 358.113,184.902 c -54.05,15.45 -70.23,-15.375 -101.636,-15.375 -41.567,0 -26.289,18.555 -74.067,18.719 -56.648,0.203 -33.633,-18.152 -74.707,-18.328 C 77.9414,169.785 66.2969,194.219 5.97656,184.902 2.85156,178.652 1.75,174.789 2.29297,165.23 58.3906,177.914 74.0234,149.191 107.617,150.645 c 46.477,2.011 22.156,19.796 74.719,18.335 49.148,-1.367 24.527,-18.726 74.059,-18.726 42.882,0 48.031,30.055 105.043,16.445 0,0 2.578,8.645 -3.325,18.203 z" /&gt;&lt;path
             id="path30"
             style="fill:#026c9b;fill-opacity:1;fill-rule:nonzero;stroke:none"
             d="m 313.137,218.492 c -29.551,5.395 -21.953,-13.664 -56.66,-13.664 -41.567,0 -24.829,18.563 -72.598,18.727 -56.645,0.199 -37.695,-20.399 -78.789,-20.629 -27.1877,-0.153 -35.297,12.871 -60.3127,12.504 -7.3554,-2.575 -19.496,-10.297 -27.207,-16.547 43.0235,10.293 59.4531,-12.75 88.5747,-12.93 46.519,-0.289 25.093,19.789 77.656,18.328 49.16,-1.359 23.062,-18.718 72.594,-18.718 34.789,0 35.414,28.886 84.804,17.363 0,0 -12.613,9.316 -28.062,15.566" /&gt;&lt;path
             id="path32"
             style="fill:none;stroke:#ffffff;stroke-width:3.5;stroke-linecap:butt;stroke-linejoin:miter;stroke-miterlimit:4;stroke-dasharray:none;stroke-opacity:1"
             d="m 313.137,218.492 c -29.551,5.395 -21.953,-13.664 -56.66,-13.664 -41.567,0 -24.829,18.563 -72.598,18.727 -56.645,0.199 -37.695,-20.399 -78.789,-20.629 -27.1877,-0.153 -35.297,12.871 -60.3127,12.504 -7.3554,-2.575 -19.496,-10.297 -27.207,-16.547 43.0235,10.293 59.4531,-12.75 88.5747,-12.93 46.519,-0.289 25.093,19.789 77.656,18.328 49.16,-1.359 23.062,-18.718 72.594,-18.718 34.789,0 35.414,28.886 84.804,17.363 0,0 -12.613,9.316 -28.062,15.566 z" /&gt;&lt;path
             id="path34"
             style="fill:#026c9b;fill-opacity:1;fill-rule:nonzero;stroke:none"
             d="m 354.695,150.09 c -54.8,13.242 -55.047,-15.871 -93.804,-15.871 -41.567,0 -24.828,19.293 -72.602,19.457 -56.641,0.203 -36.559,-18.106 -77.644,-18.332 -27.1958,-0.149 -61.8247,27.492 -100.0669,13.886 5.6407,-8.828 24.4532,-19.308 24.4532,-19.308 22.2539,7.168 39.1796,-13.848 75.5277,-13.848 46.519,0 25.093,19.789 77.656,18.336 49.156,-1.367 23.086,-17.594 72.598,-18.726 36.152,-0.829 45.261,26.058 76.714,19.203 0,0 10.434,5.886 17.168,15.203" /&gt;&lt;path
             id="path36"
             style="fill:none;stroke:#ffffff;stroke-width:3.5;stroke-linecap:butt;stroke-linejoin:miter;stroke-miterlimit:4;stroke-dasharray:none;stroke-opacity:1"
             d="m 354.695,150.09 c -54.8,13.242 -55.047,-15.871 -93.804,-15.871 -41.567,0 -24.828,19.293 -72.602,19.457 -56.641,0.203 -36.559,-18.106 -77.644,-18.332 -27.1958,-0.149 -61.8247,27.492 -100.0669,13.886 5.6407,-8.828 24.4532,-19.308 24.4532,-19.308 22.2539,7.168 39.1796,-13.848 75.5277,-13.848 46.519,0 25.093,19.789 77.656,18.336 49.156,-1.367 23.086,-17.594 72.598,-18.726 36.152,-0.829 45.261,26.058 76.714,19.203 0,0 10.434,5.886 17.168,15.203 z" /&gt;&lt;path
             id="path38"
             style="fill:#ffffff;fill-opacity:1;fill-rule:nonzero;stroke:none"
             d="m 143.762,116.133 -64.8753,-2.672 9.0742,31.699 12.9061,-7.156 61.821,30.133 26.929,-15.254 -61.519,-29.055 15.664,-7.695" /&gt;&lt;/g&gt;&lt;/g&gt;&lt;g
         id="g40"&gt;&lt;g
           clip-path="url(#clipPath44)"
           id="g42"&gt;&lt;path
             id="path48"
             style="fill:#ffffff;fill-opacity:1;fill-rule:nonzero;stroke:none"
             d="m 230.305,221.195 64.566,-0.246 -8.766,-28.781 -12.914,7.16 -61.738,-30.519 -26.933,16.703 61.457,29.445 -15.672,6.238" /&gt;&lt;/g&gt;&lt;/g&gt;&lt;g
         id="g50"&gt;&lt;g
           clip-path="url(#clipPath54)"
           id="g52"&gt;&lt;path
             id="path58"
             style="fill:#ffffff;fill-opacity:1;fill-rule:nonzero;stroke:none"
             d="m 156.965,199.809 18.164,-23.055 -81.5157,-4.16 15.8517,7.097 -59.0822,25.051 30.7383,16.696 61.1759,-27.965 14.668,6.336" /&gt;&lt;/g&gt;&lt;/g&gt;&lt;g
         id="g60"&gt;&lt;g
           clip-path="url(#clipPath64)"
           id="g62"&gt;&lt;path
             id="path68"
             style="fill:#ffffff;fill-opacity:1;fill-rule:nonzero;stroke:none"
             d="m 206.023,132.695 -8.687,28.051 66.551,-0.476 -15.852,-7.094 63.281,-25.66 -27.793,-13.922 -62.753,25.508 -14.747,-6.407" /&gt;&lt;path
             id="path70"
             style="fill:#ffffff;fill-opacity:1;fill-rule:nonzero;stroke:none"
             d="m 150.43,116.133 -64.8753,-2.672 9.0742,31.699 12.9101,-7.156 61.816,30.133 26.922,-15.254 -61.519,-29.055 15.672,-7.695" /&gt;&lt;/g&gt;&lt;/g&gt;&lt;g
         id="g72"&gt;&lt;g
           clip-path="url(#clipPath76)"
           id="g74"&gt;&lt;path
             id="path80"
             style="fill:#026c9b;fill-opacity:1;fill-rule:nonzero;stroke:none"
             d="m 362.195,174.621 c 0,-38.683 -80.625,-70.043 -180.093,-70.043 C 82.6289,104.578 2,135.938 2,174.621 L 2,72.0313 C 2,33.3516 82.6289,1.99219 182.102,1.99219 c 99.468,0 180.093,31.35941 180.093,70.03911 l 0,102.5897" /&gt;&lt;path
             id="path82"
             style="fill:none;stroke:#ffffff;stroke-width:4;stroke-linecap:butt;stroke-linejoin:miter;stroke-miterlimit:4;stroke-dasharray:none;stroke-opacity:1"
             d="m 362.195,174.621 c 0,-38.683 -80.625,-70.043 -180.093,-70.043 C 82.6289,104.578 2,135.938 2,174.621 L 2,72.0313 C 2,33.3516 82.6289,1.99219 182.102,1.99219 c 99.468,0 180.093,31.35941 180.093,70.03911 l 0,102.5897 z" /&gt;&lt;/g&gt;&lt;/g&gt;&lt;/g&gt;&lt;/g&gt;&lt;/svg&gt;</y:Resource>
    </y:Resources>
  </data>
</graphml>
